[gd_scene load_steps=6 format=2]

[ext_resource path="res://player/Chain.gd" type="Script" id=1]
[ext_resource path="res://assets/grapplehook.png" type="Texture" id=2]
[ext_resource path="res://assets/ropes/ropeLinkLong.png" type="Texture" id=3]
[ext_resource path="res://player/Whipbetter.wav" type="AudioStream" id=4]

[sub_resource type="CapsuleShape2D" id=1]
radius = 3.34429
height = 7.74051

[node name="Chain" type="Node2D"]
script = ExtResource( 1 )

[node name="Links" type="Sprite" parent="."]
position = Vector2( 2.53302, -3.83125 )
scale = Vector2( 0.889931, 0.985609 )
texture = ExtResource( 3 )
centered = false
offset = Vector2( -8, 14 )
region_enabled = true
region_rect = Rect2( 0, 0, 10, 30 )
region_filter_clip = true

[node name="Tip" type="KinematicBody2D" parent="."]
position = Vector2( -0.268707, -10.7599 )
collision_layer = 8

[node name="Hook" type="Sprite" parent="Tip"]
position = Vector2( -2.77917, 0.170228 )
rotation = -3.14159
scale = Vector2( 0.638879, -0.645122 )
texture = ExtResource( 2 )
offset = Vector2( 0, 8 )

[node name="Capsuleshape2D" type="CollisionShape2D" parent="Tip"]
position = Vector2( 0.314436, 20.4793 )
shape = SubResource( 1 )

[node name="WhipSound" type="AudioStreamPlayer" parent="."]
stream = ExtResource( 4 )
